EESchema Schematic File Version 4
EELAYER 30 0
EELAYER END
$Descr A4 11693 8268
encoding utf-8
Sheet 1 1
Title ""
Date ""
Rev ""
Comp ""
Comment1 ""
Comment2 ""
Comment3 ""
Comment4 ""
$EndDescr
Wire Wire Line
	2100 1850 1850 1850
Text Label 1850 1850 0    50   ~ 0
MORSE
$Comp
L ME218_BaseLib:PIC16F1778 U1
U 1 1 60026006
P 2850 2800
F 0 "U1" H 2850 4015 50  0000 C CNN
F 1 "PIC16F1778" H 2850 3924 50  0000 C CNN
F 2 "" H 2850 2800 50  0001 C CNN
F 3 "" H 2850 2800 50  0001 C CNN
	1    2850 2800
	1    0    0    -1  
$EndComp
Wire Wire Line
	4200 2900 4650 2900
Text Label 4200 2900 0    50   ~ 0
MORSE
$Comp
L ME218_BaseLib:2N7000 Q1
U 1 1 600288CB
P 4850 2900
F 0 "Q1" H 5056 2946 50  0000 L CNN
F 1 "2N7000" H 5056 2855 50  0000 L CNN
F 2 "Package_TO_SOT_THT:TO-92_Inline" H 5050 2825 50  0001 L CIN
F 3 "" H 4850 2900 50  0001 L CNN
	1    4850 2900
	1    0    0    -1  
$EndComp
$Comp
L ME218_BaseLib:LED D2
U 1 1 6002A1F7
P 4950 2400
F 0 "D2" V 4989 2283 50  0000 R CNN
F 1 "Red LED" V 4898 2283 50  0000 R CNN
F 2 "" H 4950 2400 50  0001 C CNN
F 3 "" H 4950 2400 50  0001 C CNN
	1    4950 2400
	0    -1   -1   0   
$EndComp
$Comp
L ME218_BaseLib:LED D1
U 1 1 6002B30D
P 4950 2100
F 0 "D1" V 4989 1982 50  0000 R CNN
F 1 "Infrared LED" V 4898 1982 50  0000 R CNN
F 2 "" H 4950 2100 50  0001 C CNN
F 3 "" H 4950 2100 50  0001 C CNN
	1    4950 2100
	0    -1   -1   0   
$EndComp
Wire Wire Line
	4950 3100 4950 3300
$Comp
L power:GND #PWR02
U 1 1 6002BFD2
P 4950 3300
F 0 "#PWR02" H 4950 3050 50  0001 C CNN
F 1 "GND" H 4955 3127 50  0000 C CNN
F 2 "" H 4950 3300 50  0001 C CNN
F 3 "" H 4950 3300 50  0001 C CNN
	1    4950 3300
	1    0    0    -1  
$EndComp
Wire Wire Line
	4950 2550 4950 2700
$Comp
L Device:R_US R1
U 1 1 60034E93
P 4950 1800
F 0 "R1" H 5018 1846 50  0000 L CNN
F 1 "122" H 5018 1755 50  0000 L CNN
F 2 "" V 4990 1790 50  0001 C CNN
F 3 "~" H 4950 1800 50  0001 C CNN
	1    4950 1800
	1    0    0    -1  
$EndComp
$Comp
L power:+5V #PWR01
U 1 1 60036084
P 4950 1650
F 0 "#PWR01" H 4950 1500 50  0001 C CNN
F 1 "+5V" H 4965 1823 50  0000 C CNN
F 2 "" H 4950 1650 50  0001 C CNN
F 3 "" H 4950 1650 50  0001 C CNN
	1    4950 1650
	1    0    0    -1  
$EndComp
$Comp
L power:+5V #PWR03
U 1 1 60038E4F
P 6400 1650
F 0 "#PWR03" H 6400 1500 50  0001 C CNN
F 1 "+5V" H 6415 1823 50  0000 C CNN
F 2 "" H 6400 1650 50  0001 C CNN
F 3 "" H 6400 1650 50  0001 C CNN
	1    6400 1650
	1    0    0    -1  
$EndComp
$Comp
L ME218_BaseLib:Photo_NPN Q2
U 1 1 6003A817
P 6300 1850
F 0 "Q2" H 6491 1896 50  0000 L CNN
F 1 "Photo_NPN" H 6491 1805 50  0000 L CNN
F 2 "" H 6500 1950 50  0001 C CNN
F 3 "" H 6300 1850 50  0001 C CNN
	1    6300 1850
	1    0    0    -1  
$EndComp
$Comp
L Device:R_US R2
U 1 1 6003B3B2
P 6400 2200
F 0 "R2" H 6468 2246 50  0000 L CNN
F 1 " " H 6468 2155 50  0000 L CNN
F 2 "" V 6440 2190 50  0001 C CNN
F 3 "~" H 6400 2200 50  0001 C CNN
	1    6400 2200
	1    0    0    -1  
$EndComp
Wire Wire Line
	6400 2050 7150 2050
Connection ~ 6400 2050
Text Label 7150 2050 2    50   ~ 0
Vout
$Comp
L power:GND #PWR04
U 1 1 6003C3DA
P 6400 2350
F 0 "#PWR04" H 6400 2100 50  0001 C CNN
F 1 "GND" H 6405 2177 50  0000 C CNN
F 2 "" H 6400 2350 50  0001 C CNN
F 3 "" H 6400 2350 50  0001 C CNN
	1    6400 2350
	1    0    0    -1  
$EndComp
$EndSCHEMATC
